%YAML 1.1
%TAG !u! tag:unity3d.com,2011:
--- !u!114 &11400000
MonoBehaviour:
  m_ObjectHideFlags: 0
  m_PrefabParentObject: {fileID: 0}
  m_PrefabInternal: {fileID: 0}
  m_GameObject: {fileID: 0}
  m_Enabled: 1
  m_EditorHideFlags: 0
  m_Script: {fileID: 11500000, guid: 76e4e19654f3a9e4393383c11ff03c0c, type: 3}
  m_Name: AkWwiseProjectData 2
  m_EditorClassIdentifier: 
  AcousticTextureWwu: []
  autoPopulateEnabled: 1
  AuxBusWwu: []
  BankWwu: []
  basePath: Audio\GeneratedSoundBanks
  callbackManagerBufferSize: 4
  CurrentPluginConfig: 
  defaultPoolSize: 4096
  EventWwu: []
  ExpandedItems: []
  language: English(US)
  lowerPoolSize: 2048
  m_lastPopulateTimePart2: 0
  m_lastPopulateTimePsrt1: 0
  memoryCutoffThreshold: 0.95
  preparePoolSize: 0
  RtpcWwu: []
  StateWwu: []
  streamingPoolSize: 1024
  SwitchWwu: []
  TriggerWwu: []
