{"items":
	[{"key":"concierge_d0", "value":"Cube: Hi."},
	 {"key":"concierge_d1", "value":"Concierge: Good evening, Mr. Cube. How can I help you?"},
	 {"key":"concierge_d2", "value":"Cube: Somebody knocked on my door."},
	 {"key":"concierge_d3", "value":"Pause"},
	 {"key":"concierge_d4", "value":"Concierge: That's terrible. Did you try to open the door?"},
	 {"key":"concierge_d5", "value":"Cube: Yes, but there was only a note on the floor."},
	 {"key":"concierge_d6", "value":"Concierge: What did the note say?"},
	 {"key":"concierge_d7", "value":"Cube: “I’m watching you”"},
	 {"key":"concierge_d8", "value":"Concierge: That’s nice! It’s always great to have someone that takes care of you."},
	 {"key":"concierge_d9", "value":"Cube: Did you see anyone around here?"},
	 {"key":"concierge_d10", "value":"Concierge: I did not! And that would have been strange!"},
	 {"key":"concierge_d11", "value":"Cube: Why?"},
	 {"key":"concierge_d12", "value":"Concierge: Because I do not work here!"},
	 {"key":"concierge_d13", "value":"Cube: But you are the concierge."},
	 {"key":"concierge_d14", "value":"Concierge: I am not! There has never been a concierge in this building!"},
	 {"key":"concierge_d15", "value":"Cube: I thought someone finally hired one. I guess I will have to wait in my apartment, maybe the stranger comes again."},
	 {"key":"concierge_d16", "value":"Concierge: You can’t come back to your apartment!"},
	 {"key":"concierge_d17", "value":"Cube: Why?"},
	 {"key":"concierge_d18", "value":"Concierge: Because the elevator now is a chair!"},
	 {"key":"concierge_second_d0", "value":"Cube: Well, that's problematic."},
	 {"key":"concierge_second_d1", "value":"Concierge: Be careful, Mr. Cube! Chairs don't forget!"}
	]
}